----------------K=2, N=10----------------
U0 = 0.566
U1 = 0.226
U2 = 0.170
U3 = 0.170
U4 = 0.882
U5 = 0.883

X0 = 113.144
X1 = 11.317
X2 = 11.316
X3 = 11.318
X4 = 44.108
X5 = 44.139

J0 = 1.226
J1 = 0.291
J2 = 0.203
J3 = 0.204
J4 = 4.033
J5 = 4.043

T = 884.034

----------------K=3, N=10----------------
U0 = 0.726
U1 = 0.291
U2 = 0.218
U3 = 0.218
U4 = 0.755
U5 = 0.756
U6 = 0.755

X0 = 145.273
X1 = 14.531
X2 = 14.527
X3 = 14.534
X4 = 37.762
X5 = 37.775
X6 = 37.777

J0 = 2.093
J1 = 0.402
J2 = 0.275
J3 = 0.276
J4 = 2.317
J5 = 2.318
J6 = 2.318

T = 688.513

----------------K=4, N=10----------------
U0 = 0.819
U1 = 0.327
U2 = 0.246
U3 = 0.246
U4 = 0.639
U5 = 0.639
U6 = 0.639
U7 = 0.639

X0 = 163.757
X1 = 16.376
X2 = 16.374
X3 = 16.374
X4 = 31.935
X5 = 31.930
X6 = 31.929
X7 = 31.937

J0 = 2.818
J1 = 0.474
J2 = 0.321
J3 = 0.321
J4 = 1.516
J5 = 1.516
J6 = 1.517
J7 = 1.517

T = 610.611

----------------K=5, N=10----------------
U0 = 0.871
U1 = 0.348
U2 = 0.261
U3 = 0.261
U4 = 0.543
U5 = 0.544
U6 = 0.543
U7 = 0.543
U8 = 0.543

X0 = 174.165
X1 = 17.420
X2 = 17.416
X3 = 17.423
X4 = 27.170
X5 = 27.173
X6 = 27.169
X7 = 27.174
X8 = 27.163

J0 = 3.350
J1 = 0.519
J2 = 0.348
J3 = 0.348
J4 = 1.087
J5 = 1.088
J6 = 1.087
J7 = 1.087
J8 = 1.087

T = 574.361

----------------K=6, N=10----------------
U0 = 0.901
U1 = 0.361
U2 = 0.271
U3 = 0.271
U4 = 0.469
U5 = 0.469
U6 = 0.469
U7 = 0.469
U8 = 0.469
U9 = 0.469

X0 = 180.322
X1 = 18.032
X2 = 18.037
X3 = 18.038
X4 = 23.449
X5 = 23.431
X6 = 23.442
X7 = 23.447
X8 = 23.442
X9 = 23.443

J0 = 3.728
J1 = 0.547
J2 = 0.364
J3 = 0.364
J4 = 0.833
J5 = 0.832
J6 = 0.833
J7 = 0.833
J8 = 0.833
J9 = 0.833

T = 554.670

----------------K=7, N=10----------------
U0 = 0.921
U1 = 0.368
U2 = 0.276
U3 = 0.276
U4 = 0.410
U5 = 0.410
U6 = 0.411
U7 = 0.410
U8 = 0.411
U9 = 0.410
U10 = 0.410

X0 = 184.181
X1 = 18.421
X2 = 18.416
X3 = 18.412
X4 = 20.528
X5 = 20.528
X6 = 20.523
X7 = 20.517
X8 = 20.525
X9 = 20.518
X10 = 20.520

J0 = 4.006
J1 = 0.565
J2 = 0.375
J3 = 0.375
J4 = 0.668
J5 = 0.668
J6 = 0.669
J7 = 0.668
J8 = 0.669
J9 = 0.668
J10 = 0.668

T = 542.907

----------------K=8, N=10----------------
U0 = 0.934
U1 = 0.373
U2 = 0.280
U3 = 0.280
U4 = 0.364
U5 = 0.364
U6 = 0.364
U7 = 0.364
U8 = 0.364
U9 = 0.364
U10 = 0.364
U11 = 0.364

X0 = 186.694
X1 = 18.670
X2 = 18.671
X3 = 18.675
X4 = 18.210
X5 = 18.208
X6 = 18.194
X7 = 18.198
X8 = 18.199
X9 = 18.201
X10 = 18.199
X11 = 18.198

J0 = 4.214
J1 = 0.577
J2 = 0.382
J3 = 0.382
J4 = 0.556
J5 = 0.556
J6 = 0.555
J7 = 0.555
J8 = 0.556
J9 = 0.556
J10 = 0.555
J11 = 0.555

T = 535.437

----------------K=2, N=15----------------
U0 = 0.593
U1 = 0.237
U2 = 0.178
U3 = 0.178
U4 = 0.925
U5 = 0.925

X0 = 118.662
X1 = 11.865
X2 = 11.868
X3 = 11.865
X4 = 46.276
X5 = 46.275

J0 = 1.418
J1 = 0.310
J2 = 0.216
J3 = 0.216
J4 = 6.419
J5 = 6.420

T = 1264.065

----------------K=3, N=15----------------
U0 = 0.797
U1 = 0.319
U2 = 0.239
U3 = 0.239
U4 = 0.829
U5 = 0.829
U6 = 0.829

X0 = 159.405
X1 = 15.943
X2 = 15.943
X3 = 15.940
X4 = 41.443
X5 = 41.445
X6 = 41.449

J0 = 3.128
J1 = 0.464
J2 = 0.313
J3 = 0.312
J4 = 3.591
J5 = 3.596
J6 = 3.597

T = 941.188

----------------K=4, N=15----------------
U0 = 0.910
U1 = 0.364
U2 = 0.273
U3 = 0.273
U4 = 0.710
U5 = 0.710
U6 = 0.710
U7 = 0.710

X0 = 181.985
X1 = 18.196
X2 = 18.200
X3 = 18.196
X4 = 35.484
X5 = 35.490
X6 = 35.489
X7 = 35.487

J0 = 5.063
J1 = 0.564
J2 = 0.373
J3 = 0.372
J4 = 2.157
J5 = 2.158
J6 = 2.157
J7 = 2.157

T = 824.236

----------------K=5, N=15----------------
U0 = 0.959
U1 = 0.383
U2 = 0.288
U3 = 0.288
U4 = 0.598
U5 = 0.598
U6 = 0.598
U7 = 0.598
U8 = 0.598

X0 = 191.723
X1 = 19.170
X2 = 19.172
X3 = 19.173
X4 = 29.907
X5 = 29.906
X6 = 29.908
X7 = 29.907
X8 = 29.910

J0 = 6.519
J1 = 0.614
J2 = 0.401
J3 = 0.401
J4 = 1.413
J5 = 1.413
J6 = 1.413
J7 = 1.414
J8 = 1.413

T = 782.139

----------------K=6, N=15----------------
U0 = 0.979
U1 = 0.391
U2 = 0.294
U3 = 0.294
U4 = 0.509
U5 = 0.509
U6 = 0.509
U7 = 0.509
U8 = 0.509
U9 = 0.509

X0 = 195.734
X1 = 19.571
X2 = 19.575
X3 = 19.578
X4 = 25.443
X5 = 25.450
X6 = 25.447
X7 = 25.445
X8 = 25.443
X9 = 25.442

J0 = 7.465
J1 = 0.636
J2 = 0.413
J3 = 0.413
J4 = 1.012
J5 = 1.012
J6 = 1.012
J7 = 1.012
J8 = 1.012
J9 = 1.012

T = 766.333

----------------K=7, N=15----------------
U0 = 0.988
U1 = 0.395
U2 = 0.296
U3 = 0.296
U4 = 0.440
U5 = 0.440
U6 = 0.440
U7 = 0.440
U8 = 0.440
U9 = 0.440
U10 = 0.440

X0 = 197.508
X1 = 19.750
X2 = 19.754
X3 = 19.753
X4 = 22.010
X5 = 22.008
X6 = 22.007
X7 = 22.004
X8 = 22.009
X9 = 22.013
X10 = 22.009

J0 = 8.076
J1 = 0.647
J2 = 0.419
J3 = 0.419
J4 = 0.778
J5 = 0.777
J6 = 0.777
J7 = 0.776
J8 = 0.777
J9 = 0.777
J10 = 0.777

T = 759.550

----------------K=8, N=15----------------
U0 = 0.992
U1 = 0.397
U2 = 0.298
U3 = 0.298
U4 = 0.387
U5 = 0.387
U6 = 0.387
U7 = 0.387
U8 = 0.387
U9 = 0.387
U10 = 0.387
U11 = 0.387

X0 = 198.393
X1 = 19.841
X2 = 19.836
X3 = 19.842
X4 = 19.344
X5 = 19.344
X6 = 19.343
X7 = 19.347
X8 = 19.342
X9 = 19.343
X10 = 19.341
X11 = 19.341

J0 = 8.489
J1 = 0.653
J2 = 0.422
J3 = 0.422
J4 = 0.627
J5 = 0.627
J6 = 0.627
J7 = 0.627
J8 = 0.627
J9 = 0.627
J10 = 0.627
J11 = 0.627

T = 756.057

----------------K=2, N=20----------------
U0 = 0.606
U1 = 0.242
U2 = 0.182
U3 = 0.182
U4 = 0.946
U5 = 0.946

X0 = 121.246
X1 = 12.123
X2 = 12.126
X3 = 12.123
X4 = 47.286
X5 = 47.286

J0 = 1.516
J1 = 0.320
J2 = 0.222
J3 = 0.222
J4 = 8.860
J5 = 8.861

T = 1649.558

----------------K=3, N=20----------------
U0 = 0.836
U1 = 0.334
U2 = 0.251
U3 = 0.251
U4 = 0.870
U5 = 0.870
U6 = 0.870

X0 = 167.227
X1 = 16.722
X2 = 16.722
X3 = 16.721
X4 = 43.480
X5 = 43.482
X6 = 43.477

J0 = 4.115
J1 = 0.500
J2 = 0.334
J3 = 0.334
J4 = 4.906
J5 = 4.907
J6 = 4.904

T = 1196.035

----------------K=4, N=20----------------
U0 = 0.955
U1 = 0.382
U2 = 0.286
U3 = 0.287
U4 = 0.745
U5 = 0.745
U6 = 0.745
U7 = 0.745

X0 = 191.031
X1 = 19.103
X2 = 19.100
X3 = 19.101
X4 = 37.250
X5 = 37.252
X6 = 37.252
X7 = 37.250

J0 = 7.943
J1 = 0.614
J2 = 0.400
J3 = 0.400
J4 = 2.660
J5 = 2.661
J6 = 2.661
J7 = 2.661

T = 1046.843

----------------K=5, N=20----------------
U0 = 0.989
U1 = 0.396
U2 = 0.297
U3 = 0.297
U4 = 0.617
U5 = 0.617
U6 = 0.617
U7 = 0.617
U8 = 0.617

X0 = 197.768
X1 = 19.777
X2 = 19.774
X3 = 19.777
X4 = 30.851
X5 = 30.855
X6 = 30.851
X7 = 30.849
X8 = 30.851

J0 = 10.629
J1 = 0.652
J2 = 0.421
J3 = 0.421
J4 = 1.576
J5 = 1.576
J6 = 1.576
J7 = 1.575
J8 = 1.576

T = 1011.183

----------------K=6, N=20----------------
U0 = 0.997
U1 = 0.399
U2 = 0.299
U3 = 0.299
U4 = 0.518
U5 = 0.518
U6 = 0.518
U7 = 0.518
U8 = 0.518
U9 = 0.518

X0 = 199.340
X1 = 19.933
X2 = 19.934
X3 = 19.934
X4 = 25.914
X5 = 25.913
X6 = 25.912
X7 = 25.913
X8 = 25.915
X9 = 25.917

J0 = 12.069
J1 = 0.661
J2 = 0.426
J3 = 0.426
J4 = 1.070
J5 = 1.070
J6 = 1.070
J7 = 1.069
J8 = 1.069
J9 = 1.070

T = 1003.300

----------------K=7, N=20----------------
U0 = 0.999
U1 = 0.400
U2 = 0.300
U3 = 0.300
U4 = 0.445
U5 = 0.445
U6 = 0.445
U7 = 0.445
U8 = 0.445
U9 = 0.445
U10 = 0.445

X0 = 199.751
X1 = 19.975
X2 = 19.976
X3 = 19.974
X4 = 22.257
X5 = 22.259
X6 = 22.258
X7 = 22.258
X8 = 22.259
X9 = 22.256
X10 = 22.257

J0 = 12.875
J1 = 0.664
J2 = 0.428
J3 = 0.428
J4 = 0.801
J5 = 0.801
J6 = 0.801
J7 = 0.801
J8 = 0.801
J9 = 0.801
J10 = 0.801

T = 1001.178

----------------K=8, N=20----------------
U0 = 0.999
U1 = 0.400
U2 = 0.300
U3 = 0.300
U4 = 0.390
U5 = 0.390
U6 = 0.390
U7 = 0.390
U8 = 0.390
U9 = 0.390
U10 = 0.390
U11 = 0.390

X0 = 199.882
X1 = 19.987
X2 = 19.990
X3 = 19.990
X4 = 19.488
X5 = 19.490
X6 = 19.488
X7 = 19.487
X8 = 19.487
X9 = 19.487
X10 = 19.488
X11 = 19.488

J0 = 13.373
J1 = 0.665
J2 = 0.428
J3 = 0.428
J4 = 0.638
J5 = 0.638
J6 = 0.638
J7 = 0.638
J8 = 0.638
J9 = 0.638
J10 = 0.638
J11 = 0.638

T = 1000.533

